<?xml version="1.0" encoding="iso-8859-1"?>
<!-- Generator: Adobe Illustrator 19.0.0, SVG Export Plug-In . SVG Version: 6.00 Build 0)  -->
<svg version="1.1" id="Capa_1" xmlns="http://www.w3.org/2000/svg" xmlns:xlink="http://www.w3.org/1999/xlink" x="0px" y="0px"
	 viewBox="0 0 508.492 508.492" style="enable-background:new 0 0 508.492 508.492;" xml:space="preserve">
<path style="fill:#5bc9bd;" d="M504.15,158.24c-2.829-33.848-23.011-76.532-64.487-78.058c-115.815-7.787-253.02-9.916-370.933,0
	c-36.582,4.1-61.658,48.659-64.391,82.507c-5.784,71.097-5.784,111.557,0,182.654c2.765,33.848,27.206,78.662,64.455,83.365
	c119.311,7.787,255.849,8.899,370.933,0c36.105-6.261,61.69-49.517,64.455-83.365C509.934,274.214,509.934,229.337,504.15,158.24z
	 M190.647,344.199V161.926l158.912,91.152L190.647,344.199z"/>
<g>
</g>
<g>
</g>
<g>
</g>
<g>
</g>
<g>
</g>
<g>
</g>
<g>
</g>
<g>
</g>
<g>
</g>
<g>
</g>
<g>
</g>
<g>
</g>
<g>
</g>
<g>
</g>
<g>
</g>
</svg>
